%YAML 1.1
%TAG !u! tag:unity3d.com,2011:
--- !u!1 &236960531545964720
GameObject:
  m_ObjectHideFlags: 0
  m_CorrespondingSourceObject: {fileID: 0}
  m_PrefabInstance: {fileID: 0}
  m_PrefabAsset: {fileID: 0}
  serializedVersion: 6
  m_Component:
  - component: {fileID: 6880517691775217566}
  - component: {fileID: 1503074125859602335}
  - component: {fileID: 1523843612627319572}
  m_Layer: 31
  m_Name: Layer1
  m_TagString: Untagged
  m_Icon: {fileID: 0}
  m_NavMeshLayer: 0
  m_StaticEditorFlags: 0
  m_IsActive: 1
--- !u!4 &6880517691775217566
Transform:
  m_ObjectHideFlags: 0
  m_CorrespondingSourceObject: {fileID: 0}
  m_PrefabInstance: {fileID: 0}
  m_PrefabAsset: {fileID: 0}
  m_GameObject: {fileID: 236960531545964720}
  m_LocalRotation: {x: -0, y: -0, z: -0, w: 1}
  m_LocalPosition: {x: 0, y: 0, z: 0}
  m_LocalScale: {x: 1, y: 1, z: 1}
  m_Children: []
  m_Father: {fileID: 4897602588809189713}
  m_RootOrder: 0
  m_LocalEulerAnglesHint: {x: 0, y: 0, z: 0}
--- !u!1839735485 &1503074125859602335
Tilemap:
  m_ObjectHideFlags: 0
  m_CorrespondingSourceObject: {fileID: 0}
  m_PrefabInstance: {fileID: 0}
  m_PrefabAsset: {fileID: 0}
  m_GameObject: {fileID: 236960531545964720}
  m_Enabled: 1
  m_Tiles:
  - first: {x: -1, y: -9, z: 0}
    second:
      m_TileIndex: 120
      m_TileSpriteIndex: 120
      m_TileMatrixIndex: 0
      m_TileColorIndex: 0
      m_ObjectToInstantiate: {fileID: 0}
      m_TileFlags: 1
      m_ColliderType: 1
  - first: {x: 0, y: -9, z: 0}
    second:
      m_TileIndex: 121
      m_TileSpriteIndex: 121
      m_TileMatrixIndex: 0
      m_TileColorIndex: 0
      m_ObjectToInstantiate: {fileID: 0}
      m_TileFlags: 1
      m_ColliderType: 1
  - first: {x: 5, y: -9, z: 0}
    second:
      m_TileIndex: 122
      m_TileSpriteIndex: 122
      m_TileMatrixIndex: 0
      m_TileColorIndex: 0
      m_ObjectToInstantiate: {fileID: 0}
      m_TileFlags: 1
      m_ColliderType: 1
  - first: {x: 6, y: -9, z: 0}
    second:
      m_TileIndex: 123
      m_TileSpriteIndex: 123
      m_TileMatrixIndex: 0
      m_TileColorIndex: 0
      m_ObjectToInstantiate: {fileID: 0}
      m_TileFlags: 1
      m_ColliderType: 1
  - first: {x: 7, y: -9, z: 0}
    second:
      m_TileIndex: 124
      m_TileSpriteIndex: 124
      m_TileMatrixIndex: 0
      m_TileColorIndex: 0
      m_ObjectToInstantiate: {fileID: 0}
      m_TileFlags: 1
      m_ColliderType: 1
  - first: {x: 9, y: -9, z: 0}
    second:
      m_TileIndex: 125
      m_TileSpriteIndex: 125
      m_TileMatrixIndex: 0
      m_TileColorIndex: 0
      m_ObjectToInstantiate: {fileID: 0}
      m_TileFlags: 1
      m_ColliderType: 1
  - first: {x: 10, y: -9, z: 0}
    second:
      m_TileIndex: 126
      m_TileSpriteIndex: 126
      m_TileMatrixIndex: 0
      m_TileColorIndex: 0
      m_ObjectToInstantiate: {fileID: 0}
      m_TileFlags: 1
      m_ColliderType: 1
  - first: {x: 11, y: -9, z: 0}
    second:
      m_TileIndex: 127
      m_TileSpriteIndex: 127
      m_TileMatrixIndex: 0
      m_TileColorIndex: 0
      m_ObjectToInstantiate: {fileID: 0}
      m_TileFlags: 1
      m_ColliderType: 1
  - first: {x: -3, y: -8, z: 0}
    second:
      m_TileIndex: 110
      m_TileSpriteIndex: 110
      m_TileMatrixIndex: 0
      m_TileColorIndex: 0
      m_ObjectToInstantiate: {fileID: 0}
      m_TileFlags: 1
      m_ColliderType: 1
  - first: {x: -1, y: -8, z: 0}
    second:
      m_TileIndex: 111
      m_TileSpriteIndex: 111
      m_TileMatrixIndex: 0
      m_TileColorIndex: 0
      m_ObjectToInstantiate: {fileID: 0}
      m_TileFlags: 1
      m_ColliderType: 1
  - first: {x: 0, y: -8, z: 0}
    second:
      m_TileIndex: 112
      m_TileSpriteIndex: 112
      m_TileMatrixIndex: 0
      m_TileColorIndex: 0
      m_ObjectToInstantiate: {fileID: 0}
      m_TileFlags: 1
      m_ColliderType: 1
  - first: {x: 5, y: -8, z: 0}
    second:
      m_TileIndex: 113
      m_TileSpriteIndex: 113
      m_TileMatrixIndex: 0
      m_TileColorIndex: 0
      m_ObjectToInstantiate: {fileID: 0}
      m_TileFlags: 1
      m_ColliderType: 1
  - first: {x: 6, y: -8, z: 0}
    second:
      m_TileIndex: 114
      m_TileSpriteIndex: 114
      m_TileMatrixIndex: 0
      m_TileColorIndex: 0
      m_ObjectToInstantiate: {fileID: 0}
      m_TileFlags: 1
      m_ColliderType: 1
  - first: {x: 7, y: -8, z: 0}
    second:
      m_TileIndex: 115
      m_TileSpriteIndex: 115
      m_TileMatrixIndex: 0
      m_TileColorIndex: 0
      m_ObjectToInstantiate: {fileID: 0}
      m_TileFlags: 1
      m_ColliderType: 1
  - first: {x: 9, y: -8, z: 0}
    second:
      m_TileIndex: 116
      m_TileSpriteIndex: 116
      m_TileMatrixIndex: 0
      m_TileColorIndex: 0
      m_ObjectToInstantiate: {fileID: 0}
      m_TileFlags: 1
      m_ColliderType: 1
  - first: {x: 10, y: -8, z: 0}
    second:
      m_TileIndex: 117
      m_TileSpriteIndex: 117
      m_TileMatrixIndex: 0
      m_TileColorIndex: 0
      m_ObjectToInstantiate: {fileID: 0}
      m_TileFlags: 1
      m_ColliderType: 1
  - first: {x: 11, y: -8, z: 0}
    second:
      m_TileIndex: 118
      m_TileSpriteIndex: 118
      m_TileMatrixIndex: 0
      m_TileColorIndex: 0
      m_ObjectToInstantiate: {fileID: 0}
      m_TileFlags: 1
      m_ColliderType: 1
  - first: {x: 13, y: -8, z: 0}
    second:
      m_TileIndex: 119
      m_TileSpriteIndex: 119
      m_TileMatrixIndex: 0
      m_TileColorIndex: 0
      m_ObjectToInstantiate: {fileID: 0}
      m_TileFlags: 1
      m_ColliderType: 1
  - first: {x: -3, y: -6, z: 0}
    second:
      m_TileIndex: 98
      m_TileSpriteIndex: 98
      m_TileMatrixIndex: 0
      m_TileColorIndex: 0
      m_ObjectToInstantiate: {fileID: 0}
      m_TileFlags: 1
      m_ColliderType: 1
  - first: {x: -2, y: -6, z: 0}
    second:
      m_TileIndex: 99
      m_TileSpriteIndex: 99
      m_TileMatrixIndex: 0
      m_TileColorIndex: 0
      m_ObjectToInstantiate: {fileID: 0}
      m_TileFlags: 1
      m_ColliderType: 1
  - first: {x: 0, y: -6, z: 0}
    second:
      m_TileIndex: 100
      m_TileSpriteIndex: 100
      m_TileMatrixIndex: 0
      m_TileColorIndex: 0
      m_ObjectToInstantiate: {fileID: 0}
      m_TileFlags: 1
      m_ColliderType: 1
  - first: {x: 1, y: -6, z: 0}
    second:
      m_TileIndex: 101
      m_TileSpriteIndex: 101
      m_TileMatrixIndex: 0
      m_TileColorIndex: 0
      m_ObjectToInstantiate: {fileID: 0}
      m_TileFlags: 1
      m_ColliderType: 1
  - first: {x: 6, y: -6, z: 0}
    second:
      m_TileIndex: 102
      m_TileSpriteIndex: 102
      m_TileMatrixIndex: 0
      m_TileColorIndex: 0
      m_ObjectToInstantiate: {fileID: 0}
      m_TileFlags: 1
      m_ColliderType: 1
  - first: {x: 7, y: -6, z: 0}
    second:
      m_TileIndex: 103
      m_TileSpriteIndex: 95
      m_TileMatrixIndex: 0
      m_TileColorIndex: 0
      m_ObjectToInstantiate: {fileID: 0}
      m_TileFlags: 1
      m_ColliderType: 1
  - first: {x: 8, y: -6, z: 0}
    second:
      m_TileIndex: 104
      m_TileSpriteIndex: 104
      m_TileMatrixIndex: 0
      m_TileColorIndex: 0
      m_ObjectToInstantiate: {fileID: 0}
      m_TileFlags: 1
      m_ColliderType: 1
  - first: {x: 10, y: -6, z: 0}
    second:
      m_TileIndex: 105
      m_TileSpriteIndex: 105
      m_TileMatrixIndex: 0
      m_TileColorIndex: 0
      m_ObjectToInstantiate: {fileID: 0}
      m_TileFlags: 1
      m_ColliderType: 1
  - first: {x: 11, y: -6, z: 0}
    second:
      m_TileIndex: 106
      m_TileSpriteIndex: 106
      m_TileMatrixIndex: 0
      m_TileColorIndex: 0
      m_ObjectToInstantiate: {fileID: 0}
      m_TileFlags: 1
      m_ColliderType: 1
  - first: {x: 13, y: -6, z: 0}
    second:
      m_TileIndex: 107
      m_TileSpriteIndex: 107
      m_TileMatrixIndex: 0
      m_TileColorIndex: 0
      m_ObjectToInstantiate: {fileID: 0}
      m_TileFlags: 1
      m_ColliderType: 1
  - first: {x: 15, y: -6, z: 0}
    second:
      m_TileIndex: 108
      m_TileSpriteIndex: 108
      m_TileMatrixIndex: 0
      m_TileColorIndex: 0
      m_ObjectToInstantiate: {fileID: 0}
      m_TileFlags: 1
      m_ColliderType: 1
  - first: {x: 17, y: -6, z: 0}
    second:
      m_TileIndex: 109
      m_TileSpriteIndex: 109
      m_TileMatrixIndex: 0
      m_TileColorIndex: 0
      m_ObjectToInstantiate: {fileID: 0}
      m_TileFlags: 1
      m_ColliderType: 1
  - first: {x: -3, y: -5, z: 0}
    second:
      m_TileIndex: 91
      m_TileSpriteIndex: 91
      m_TileMatrixIndex: 0
      m_TileColorIndex: 0
      m_ObjectToInstantiate: {fileID: 0}
      m_TileFlags: 1
      m_ColliderType: 1
  - first: {x: -2, y: -5, z: 0}
    second:
      m_TileIndex: 92
      m_TileSpriteIndex: 92
      m_TileMatrixIndex: 0
      m_TileColorIndex: 0
      m_ObjectToInstantiate: {fileID: 0}
      m_TileFlags: 1
      m_ColliderType: 1
  - first: {x: 0, y: -5, z: 0}
    second:
      m_TileIndex: 93
      m_TileSpriteIndex: 93
      m_TileMatrixIndex: 0
      m_TileColorIndex: 0
      m_ObjectToInstantiate: {fileID: 0}
      m_TileFlags: 1
      m_ColliderType: 1
  - first: {x: 1, y: -5, z: 0}
    second:
      m_TileIndex: 94
      m_TileSpriteIndex: 94
      m_TileMatrixIndex: 0
      m_TileColorIndex: 0
      m_ObjectToInstantiate: {fileID: 0}
      m_TileFlags: 1
      m_ColliderType: 1
  - first: {x: 7, y: -5, z: 0}
    second:
      m_TileIndex: 95
      m_TileSpriteIndex: 103
      m_TileMatrixIndex: 0
      m_TileColorIndex: 0
      m_ObjectToInstantiate: {fileID: 0}
      m_TileFlags: 1
      m_ColliderType: 1
  - first: {x: 10, y: -5, z: 0}
    second:
      m_TileIndex: 96
      m_TileSpriteIndex: 96
      m_TileMatrixIndex: 0
      m_TileColorIndex: 0
      m_ObjectToInstantiate: {fileID: 0}
      m_TileFlags: 1
      m_ColliderType: 1
  - first: {x: 11, y: -5, z: 0}
    second:
      m_TileIndex: 97
      m_TileSpriteIndex: 97
      m_TileMatrixIndex: 0
      m_TileColorIndex: 0
      m_ObjectToInstantiate: {fileID: 0}
      m_TileFlags: 1
      m_ColliderType: 1
  - first: {x: -2, y: -4, z: 0}
    second:
      m_TileIndex: 83
      m_TileSpriteIndex: 83
      m_TileMatrixIndex: 0
      m_TileColorIndex: 0
      m_ObjectToInstantiate: {fileID: 0}
      m_TileFlags: 1
      m_ColliderType: 1
  - first: {x: 0, y: -4, z: 0}
    second:
      m_TileIndex: 84
      m_TileSpriteIndex: 84
      m_TileMatrixIndex: 0
      m_TileColorIndex: 0
      m_ObjectToInstantiate: {fileID: 0}
      m_TileFlags: 1
      m_ColliderType: 1
  - first: {x: 7, y: -4, z: 0}
    second:
      m_TileIndex: 85
      m_TileSpriteIndex: 85
      m_TileMatrixIndex: 0
      m_TileColorIndex: 0
      m_ObjectToInstantiate: {fileID: 0}
      m_TileFlags: 1
      m_ColliderType: 1
  - first: {x: 10, y: -4, z: 0}
    second:
      m_TileIndex: 86
      m_TileSpriteIndex: 86
      m_TileMatrixIndex: 0
      m_TileColorIndex: 0
      m_ObjectToInstantiate: {fileID: 0}
      m_TileFlags: 1
      m_ColliderType: 1
  - first: {x: 11, y: -4, z: 0}
    second:
      m_TileIndex: 87
      m_TileSpriteIndex: 87
      m_TileMatrixIndex: 0
      m_TileColorIndex: 0
      m_ObjectToInstantiate: {fileID: 0}
      m_TileFlags: 1
      m_ColliderType: 1
  - first: {x: 13, y: -4, z: 0}
    second:
      m_TileIndex: 88
      m_TileSpriteIndex: 88
      m_TileMatrixIndex: 0
      m_TileColorIndex: 0
      m_ObjectToInstantiate: {fileID: 0}
      m_TileFlags: 1
      m_ColliderType: 1
  - first: {x: 14, y: -4, z: 0}
    second:
      m_TileIndex: 89
      m_TileSpriteIndex: 89
      m_TileMatrixIndex: 0
      m_TileColorIndex: 0
      m_ObjectToInstantiate: {fileID: 0}
      m_TileFlags: 1
      m_ColliderType: 1
  - first: {x: 15, y: -4, z: 0}
    second:
      m_TileIndex: 90
      m_TileSpriteIndex: 90
      m_TileMatrixIndex: 0
      m_TileColorIndex: 0
      m_ObjectToInstantiate: {fileID: 0}
      m_TileFlags: 1
      m_ColliderType: 1
  - first: {x: -3, y: -3, z: 0}
    second:
      m_TileIndex: 78
      m_TileSpriteIndex: 78
      m_TileMatrixIndex: 0
      m_TileColorIndex: 0
      m_ObjectToInstantiate: {fileID: 0}
      m_TileFlags: 1
      m_ColliderType: 1
  - first: {x: -2, y: -3, z: 0}
    second:
      m_TileIndex: 79
      m_TileSpriteIndex: 79
      m_TileMatrixIndex: 0
      m_TileColorIndex: 0
      m_ObjectToInstantiate: {fileID: 0}
      m_TileFlags: 1
      m_ColliderType: 1
  - first: {x: 0, y: -3, z: 0}
    second:
      m_TileIndex: 80
      m_TileSpriteIndex: 80
      m_TileMatrixIndex: 0
      m_TileColorIndex: 0
      m_ObjectToInstantiate: {fileID: 0}
      m_TileFlags: 1
      m_ColliderType: 1
  - first: {x: 1, y: -3, z: 0}
    second:
      m_TileIndex: 81
      m_TileSpriteIndex: 81
      m_TileMatrixIndex: 0
      m_TileColorIndex: 0
      m_ObjectToInstantiate: {fileID: 0}
      m_TileFlags: 1
      m_ColliderType: 1
  - first: {x: 5, y: -3, z: 0}
    second:
      m_TileIndex: 82
      m_TileSpriteIndex: 82
      m_TileMatrixIndex: 0
      m_TileColorIndex: 0
      m_ObjectToInstantiate: {fileID: 0}
      m_TileFlags: 1
      m_ColliderType: 1
  - first: {x: 3, y: -2, z: 0}
    second:
      m_TileIndex: 72
      m_TileSpriteIndex: 72
      m_TileMatrixIndex: 0
      m_TileColorIndex: 0
      m_ObjectToInstantiate: {fileID: 0}
      m_TileFlags: 1
      m_ColliderType: 1
  - first: {x: 5, y: -2, z: 0}
    second:
      m_TileIndex: 73
      m_TileSpriteIndex: 73
      m_TileMatrixIndex: 0
      m_TileColorIndex: 0
      m_ObjectToInstantiate: {fileID: 0}
      m_TileFlags: 1
      m_ColliderType: 1
  - first: {x: 7, y: -2, z: 0}
    second:
      m_TileIndex: 74
      m_TileSpriteIndex: 74
      m_TileMatrixIndex: 0
      m_TileColorIndex: 0
      m_ObjectToInstantiate: {fileID: 0}
      m_TileFlags: 1
      m_ColliderType: 1
  - first: {x: 12, y: -2, z: 0}
    second:
      m_TileIndex: 128
      m_TileSpriteIndex: 75
      m_TileMatrixIndex: 0
      m_TileColorIndex: 0
      m_ObjectToInstantiate: {fileID: 0}
      m_TileFlags: 1
      m_ColliderType: 1
  - first: {x: 13, y: -2, z: 0}
    second:
      m_TileIndex: 76
      m_TileSpriteIndex: 76
      m_TileMatrixIndex: 0
      m_TileColorIndex: 0
      m_ObjectToInstantiate: {fileID: 0}
      m_TileFlags: 1
      m_ColliderType: 1
  - first: {x: 14, y: -2, z: 0}
    second:
      m_TileIndex: 77
      m_TileSpriteIndex: 77
      m_TileMatrixIndex: 0
      m_TileColorIndex: 0
      m_ObjectToInstantiate: {fileID: 0}
      m_TileFlags: 1
      m_ColliderType: 1
  - first: {x: 3, y: -1, z: 0}
    second:
      m_TileIndex: 68
      m_TileSpriteIndex: 68
      m_TileMatrixIndex: 0
      m_TileColorIndex: 0
      m_ObjectToInstantiate: {fileID: 0}
      m_TileFlags: 1
      m_ColliderType: 1
  - first: {x: 5, y: -1, z: 0}
    second:
      m_TileIndex: 69
      m_TileSpriteIndex: 69
      m_TileMatrixIndex: 0
      m_TileColorIndex: 0
      m_ObjectToInstantiate: {fileID: 0}
      m_TileFlags: 1
      m_ColliderType: 1
  - first: {x: 7, y: -1, z: 0}
    second:
      m_TileIndex: 70
      m_TileSpriteIndex: 70
      m_TileMatrixIndex: 0
      m_TileColorIndex: 0
      m_ObjectToInstantiate: {fileID: 0}
      m_TileFlags: 1
      m_ColliderType: 1
  - first: {x: 9, y: -1, z: 0}
    second:
      m_TileIndex: 71
      m_TileSpriteIndex: 71
      m_TileMatrixIndex: 0
      m_TileColorIndex: 0
      m_ObjectToInstantiate: {fileID: 0}
      m_TileFlags: 1
      m_ColliderType: 1
  - first: {x: -2, y: 1, z: 0}
    second:
      m_TileIndex: 63
      m_TileSpriteIndex: 63
      m_TileMatrixIndex: 0
      m_TileColorIndex: 0
      m_ObjectToInstantiate: {fileID: 0}
      m_TileFlags: 1
      m_ColliderType: 1
  - first: {x: 0, y: 1, z: 0}
    second:
      m_TileIndex: 64
      m_TileSpriteIndex: 64
      m_TileMatrixIndex: 0
      m_TileColorIndex: 0
      m_ObjectToInstantiate: {fileID: 0}
      m_TileFlags: 1
      m_ColliderType: 1
  - first: {x: -3, y: 2, z: 0}
    second:
      m_TileIndex: 56
      m_TileSpriteIndex: 56
      m_TileMatrixIndex: 0
      m_TileColorIndex: 0
      m_ObjectToInstantiate: {fileID: 0}
      m_TileFlags: 1
      m_ColliderType: 1
  - first: {x: -2, y: 2, z: 0}
    second:
      m_TileIndex: 57
      m_TileSpriteIndex: 57
      m_TileMatrixIndex: 0
      m_TileColorIndex: 0
      m_ObjectToInstantiate: {fileID: 0}
      m_TileFlags: 1
      m_ColliderType: 1
  - first: {x: 0, y: 2, z: 0}
    second:
      m_TileIndex: 58
      m_TileSpriteIndex: 58
      m_TileMatrixIndex: 0
      m_TileColorIndex: 0
      m_ObjectToInstantiate: {fileID: 0}
      m_TileFlags: 1
      m_ColliderType: 1
  - first: {x: 1, y: 2, z: 0}
    second:
      m_TileIndex: 59
      m_TileSpriteIndex: 59
      m_TileMatrixIndex: 0
      m_TileColorIndex: 0
      m_ObjectToInstantiate: {fileID: 0}
      m_TileFlags: 1
      m_ColliderType: 1
  - first: {x: 3, y: 2, z: 0}
    second:
      m_TileIndex: 60
      m_TileSpriteIndex: 60
      m_TileMatrixIndex: 0
      m_TileColorIndex: 0
      m_ObjectToInstantiate: {fileID: 0}
      m_TileFlags: 1
      m_ColliderType: 1
  - first: {x: 6, y: 2, z: 0}
    second:
      m_TileIndex: 61
      m_TileSpriteIndex: 61
      m_TileMatrixIndex: 0
      m_TileColorIndex: 0
      m_ObjectToInstantiate: {fileID: 0}
      m_TileFlags: 1
      m_ColliderType: 1
  - first: {x: 7, y: 2, z: 0}
    second:
      m_TileIndex: 62
      m_TileSpriteIndex: 62
      m_TileMatrixIndex: 0
      m_TileColorIndex: 0
      m_ObjectToInstantiate: {fileID: 0}
      m_TileFlags: 1
      m_ColliderType: 1
  - first: {x: 12, y: 3, z: 0}
    second:
      m_TileIndex: 65
      m_TileSpriteIndex: 65
      m_TileMatrixIndex: 0
      m_TileColorIndex: 0
      m_ObjectToInstantiate: {fileID: 0}
      m_TileFlags: 1
      m_ColliderType: 1
  - first: {x: 13, y: 3, z: 0}
    second:
      m_TileIndex: 66
      m_TileSpriteIndex: 66
      m_TileMatrixIndex: 0
      m_TileColorIndex: 0
      m_ObjectToInstantiate: {fileID: 0}
      m_TileFlags: 1
      m_ColliderType: 1
  - first: {x: 14, y: 3, z: 0}
    second:
      m_TileIndex: 67
      m_TileSpriteIndex: 67
      m_TileMatrixIndex: 0
      m_TileColorIndex: 0
      m_ObjectToInstantiate: {fileID: 0}
      m_TileFlags: 1
      m_ColliderType: 1
  - first: {x: 12, y: 4, z: 0}
    second:
      m_TileIndex: 53
      m_TileSpriteIndex: 53
      m_TileMatrixIndex: 0
      m_TileColorIndex: 0
      m_ObjectToInstantiate: {fileID: 0}
      m_TileFlags: 1
      m_ColliderType: 1
  - first: {x: 13, y: 4, z: 0}
    second:
      m_TileIndex: 54
      m_TileSpriteIndex: 54
      m_TileMatrixIndex: 0
      m_TileColorIndex: 0
      m_ObjectToInstantiate: {fileID: 0}
      m_TileFlags: 1
      m_ColliderType: 1
  - first: {x: 14, y: 4, z: 0}
    second:
      m_TileIndex: 55
      m_TileSpriteIndex: 55
      m_TileMatrixIndex: 0
      m_TileColorIndex: 0
      m_ObjectToInstantiate: {fileID: 0}
      m_TileFlags: 1
      m_ColliderType: 1
  - first: {x: -3, y: 5, z: 0}
    second:
      m_TileIndex: 44
      m_TileSpriteIndex: 44
      m_TileMatrixIndex: 0
      m_TileColorIndex: 0
      m_ObjectToInstantiate: {fileID: 0}
      m_TileFlags: 1
      m_ColliderType: 1
  - first: {x: -1, y: 5, z: 0}
    second:
      m_TileIndex: 45
      m_TileSpriteIndex: 45
      m_TileMatrixIndex: 0
      m_TileColorIndex: 0
      m_ObjectToInstantiate: {fileID: 0}
      m_TileFlags: 1
      m_ColliderType: 1
  - first: {x: 1, y: 5, z: 0}
    second:
      m_TileIndex: 46
      m_TileSpriteIndex: 46
      m_TileMatrixIndex: 0
      m_TileColorIndex: 0
      m_ObjectToInstantiate: {fileID: 0}
      m_TileFlags: 1
      m_ColliderType: 1
  - first: {x: 3, y: 5, z: 0}
    second:
      m_TileIndex: 47
      m_TileSpriteIndex: 47
      m_TileMatrixIndex: 0
      m_TileColorIndex: 0
      m_ObjectToInstantiate: {fileID: 0}
      m_TileFlags: 1
      m_ColliderType: 1
  - first: {x: 5, y: 5, z: 0}
    second:
      m_TileIndex: 48
      m_TileSpriteIndex: 48
      m_TileMatrixIndex: 0
      m_TileColorIndex: 0
      m_ObjectToInstantiate: {fileID: 0}
      m_TileFlags: 1
      m_ColliderType: 1
  - first: {x: 7, y: 5, z: 0}
    second:
      m_TileIndex: 49
      m_TileSpriteIndex: 49
      m_TileMatrixIndex: 0
      m_TileColorIndex: 0
      m_ObjectToInstantiate: {fileID: 0}
      m_TileFlags: 1
      m_ColliderType: 1
  - first: {x: 12, y: 5, z: 0}
    second:
      m_TileIndex: 50
      m_TileSpriteIndex: 50
      m_TileMatrixIndex: 0
      m_TileColorIndex: 0
      m_ObjectToInstantiate: {fileID: 0}
      m_TileFlags: 1
      m_ColliderType: 1
  - first: {x: 13, y: 5, z: 0}
    second:
      m_TileIndex: 51
      m_TileSpriteIndex: 51
      m_TileMatrixIndex: 0
      m_TileColorIndex: 0
      m_ObjectToInstantiate: {fileID: 0}
      m_TileFlags: 1
      m_ColliderType: 1
  - first: {x: 14, y: 5, z: 0}
    second:
      m_TileIndex: 52
      m_TileSpriteIndex: 52
      m_TileMatrixIndex: 0
      m_TileColorIndex: 0
      m_ObjectToInstantiate: {fileID: 0}
      m_TileFlags: 1
      m_ColliderType: 1
  - first: {x: 3, y: 7, z: 0}
    second:
      m_TileIndex: 37
      m_TileSpriteIndex: 37
      m_TileMatrixIndex: 0
      m_TileColorIndex: 0
      m_ObjectToInstantiate: {fileID: 0}
      m_TileFlags: 1
      m_ColliderType: 1
  - first: {x: 4, y: 7, z: 0}
    second:
      m_TileIndex: 38
      m_TileSpriteIndex: 38
      m_TileMatrixIndex: 0
      m_TileColorIndex: 0
      m_ObjectToInstantiate: {fileID: 0}
      m_TileFlags: 1
      m_ColliderType: 1
  - first: {x: 5, y: 7, z: 0}
    second:
      m_TileIndex: 39
      m_TileSpriteIndex: 39
      m_TileMatrixIndex: 0
      m_TileColorIndex: 0
      m_ObjectToInstantiate: {fileID: 0}
      m_TileFlags: 1
      m_ColliderType: 1
  - first: {x: 10, y: 7, z: 0}
    second:
      m_TileIndex: 40
      m_TileSpriteIndex: 40
      m_TileMatrixIndex: 0
      m_TileColorIndex: 0
      m_ObjectToInstantiate: {fileID: 0}
      m_TileFlags: 1
      m_ColliderType: 1
  - first: {x: 12, y: 7, z: 0}
    second:
      m_TileIndex: 41
      m_TileSpriteIndex: 41
      m_TileMatrixIndex: 0
      m_TileColorIndex: 0
      m_ObjectToInstantiate: {fileID: 0}
      m_TileFlags: 1
      m_ColliderType: 1
  - first: {x: 16, y: 7, z: 0}
    second:
      m_TileIndex: 42
      m_TileSpriteIndex: 42
      m_TileMatrixIndex: 0
      m_TileColorIndex: 0
      m_ObjectToInstantiate: {fileID: 0}
      m_TileFlags: 1
      m_ColliderType: 1
  - first: {x: 18, y: 7, z: 0}
    second:
      m_TileIndex: 43
      m_TileSpriteIndex: 43
      m_TileMatrixIndex: 0
      m_TileColorIndex: 0
      m_ObjectToInstantiate: {fileID: 0}
      m_TileFlags: 1
      m_ColliderType: 1
  - first: {x: 10, y: 8, z: 0}
    second:
      m_TileIndex: 30
      m_TileSpriteIndex: 30
      m_TileMatrixIndex: 0
      m_TileColorIndex: 0
      m_ObjectToInstantiate: {fileID: 0}
      m_TileFlags: 1
      m_ColliderType: 1
  - first: {x: 12, y: 8, z: 0}
    second:
      m_TileIndex: 31
      m_TileSpriteIndex: 31
      m_TileMatrixIndex: 0
      m_TileColorIndex: 0
      m_ObjectToInstantiate: {fileID: 0}
      m_TileFlags: 1
      m_ColliderType: 1
  - first: {x: 16, y: 8, z: 0}
    second:
      m_TileIndex: 32
      m_TileSpriteIndex: 32
      m_TileMatrixIndex: 0
      m_TileColorIndex: 0
      m_ObjectToInstantiate: {fileID: 0}
      m_TileFlags: 1
      m_ColliderType: 1
  - first: {x: 18, y: 8, z: 0}
    second:
      m_TileIndex: 33
      m_TileSpriteIndex: 33
      m_TileMatrixIndex: 0
      m_TileColorIndex: 0
      m_ObjectToInstantiate: {fileID: 0}
      m_TileFlags: 1
      m_ColliderType: 1
  - first: {x: -2, y: 9, z: 0}
    second:
      m_TileIndex: 75
      m_TileSpriteIndex: 24
      m_TileMatrixIndex: 0
      m_TileColorIndex: 0
      m_ObjectToInstantiate: {fileID: 0}
      m_TileFlags: 1
      m_ColliderType: 1
  - first: {x: -1, y: 9, z: 0}
    second:
      m_TileIndex: 36
      m_TileSpriteIndex: 35
      m_TileMatrixIndex: 0
      m_TileColorIndex: 0
      m_ObjectToInstantiate: {fileID: 0}
      m_TileFlags: 1
      m_ColliderType: 1
  - first: {x: 0, y: 9, z: 0}
    second:
      m_TileIndex: 35
      m_TileSpriteIndex: 34
      m_TileMatrixIndex: 0
      m_TileColorIndex: 0
      m_ObjectToInstantiate: {fileID: 0}
      m_TileFlags: 1
      m_ColliderType: 1
  - first: {x: 3, y: 9, z: 0}
    second:
      m_TileIndex: 26
      m_TileSpriteIndex: 26
      m_TileMatrixIndex: 0
      m_TileColorIndex: 0
      m_ObjectToInstantiate: {fileID: 0}
      m_TileFlags: 1
      m_ColliderType: 1
  - first: {x: 4, y: 9, z: 0}
    second:
      m_TileIndex: 27
      m_TileSpriteIndex: 27
      m_TileMatrixIndex: 0
      m_TileColorIndex: 0
      m_ObjectToInstantiate: {fileID: 0}
      m_TileFlags: 1
      m_ColliderType: 1
  - first: {x: 6, y: 9, z: 0}
    second:
      m_TileIndex: 28
      m_TileSpriteIndex: 28
      m_TileMatrixIndex: 0
      m_TileColorIndex: 0
      m_ObjectToInstantiate: {fileID: 0}
      m_TileFlags: 1
      m_ColliderType: 1
  - first: {x: 7, y: 9, z: 0}
    second:
      m_TileIndex: 29
      m_TileSpriteIndex: 29
      m_TileMatrixIndex: 0
      m_TileColorIndex: 0
      m_ObjectToInstantiate: {fileID: 0}
      m_TileFlags: 1
      m_ColliderType: 1
  - first: {x: -2, y: 10, z: 0}
    second:
      m_TileIndex: 34
      m_TileSpriteIndex: 25
      m_TileMatrixIndex: 0
      m_TileColorIndex: 0
      m_ObjectToInstantiate: {fileID: 0}
      m_TileFlags: 1
      m_ColliderType: 1
  - first: {x: -1, y: 10, z: 0}
    second:
      m_TileIndex: 25
      m_TileSpriteIndex: 36
      m_TileMatrixIndex: 0
      m_TileColorIndex: 0
      m_ObjectToInstantiate: {fileID: 0}
      m_TileFlags: 1
      m_ColliderType: 1
  - first: {x: 0, y: 10, z: 0}
    second:
      m_TileIndex: 24
      m_TileSpriteIndex: 23
      m_TileMatrixIndex: 0
      m_TileColorIndex: 0
      m_ObjectToInstantiate: {fileID: 0}
      m_TileFlags: 1
      m_ColliderType: 1
  - first: {x: 9, y: 10, z: 0}
    second:
      m_TileIndex: 15
      m_TileSpriteIndex: 15
      m_TileMatrixIndex: 0
      m_TileColorIndex: 0
      m_ObjectToInstantiate: {fileID: 0}
      m_TileFlags: 1
      m_ColliderType: 1
  - first: {x: 10, y: 10, z: 0}
    second:
      m_TileIndex: 16
      m_TileSpriteIndex: 16
      m_TileMatrixIndex: 0
      m_TileColorIndex: 0
      m_ObjectToInstantiate: {fileID: 0}
      m_TileFlags: 1
      m_ColliderType: 1
  - first: {x: 12, y: 10, z: 0}
    second:
      m_TileIndex: 17
      m_TileSpriteIndex: 17
      m_TileMatrixIndex: 0
      m_TileColorIndex: 0
      m_ObjectToInstantiate: {fileID: 0}
      m_TileFlags: 1
      m_ColliderType: 1
  - first: {x: 13, y: 10, z: 0}
    second:
      m_TileIndex: 18
      m_TileSpriteIndex: 18
      m_TileMatrixIndex: 0
      m_TileColorIndex: 0
      m_ObjectToInstantiate: {fileID: 0}
      m_TileFlags: 1
      m_ColliderType: 1
  - first: {x: 15, y: 10, z: 0}
    second:
      m_TileIndex: 19
      m_TileSpriteIndex: 19
      m_TileMatrixIndex: 0
      m_TileColorIndex: 0
      m_ObjectToInstantiate: {fileID: 0}
      m_TileFlags: 1
      m_ColliderType: 1
  - first: {x: 16, y: 10, z: 0}
    second:
      m_TileIndex: 20
      m_TileSpriteIndex: 20
      m_TileMatrixIndex: 0
      m_TileColorIndex: 0
      m_ObjectToInstantiate: {fileID: 0}
      m_TileFlags: 1
      m_ColliderType: 1
  - first: {x: 18, y: 10, z: 0}
    second:
      m_TileIndex: 21
      m_TileSpriteIndex: 21
      m_TileMatrixIndex: 0
      m_TileColorIndex: 0
      m_ObjectToInstantiate: {fileID: 0}
      m_TileFlags: 1
      m_ColliderType: 1
  - first: {x: 19, y: 10, z: 0}
    second:
      m_TileIndex: 22
      m_TileSpriteIndex: 22
      m_TileMatrixIndex: 0
      m_TileColorIndex: 0
      m_ObjectToInstantiate: {fileID: 0}
      m_TileFlags: 1
      m_ColliderType: 1
  - first: {x: -2, y: 11, z: 0}
    second:
      m_TileIndex: 23
      m_TileSpriteIndex: 3
      m_TileMatrixIndex: 0
      m_TileColorIndex: 0
      m_ObjectToInstantiate: {fileID: 0}
      m_TileFlags: 1
      m_ColliderType: 1
  - first: {x: -1, y: 11, z: 0}
    second:
      m_TileIndex: 2
      m_TileSpriteIndex: 2
      m_TileMatrixIndex: 0
      m_TileColorIndex: 0
      m_ObjectToInstantiate: {fileID: 0}
      m_TileFlags: 1
      m_ColliderType: 1
  - first: {x: 0, y: 11, z: 0}
    second:
      m_TileIndex: 1
      m_TileSpriteIndex: 1
      m_TileMatrixIndex: 0
      m_TileColorIndex: 0
      m_ObjectToInstantiate: {fileID: 0}
      m_TileFlags: 1
      m_ColliderType: 1
  - first: {x: 3, y: 11, z: 0}
    second:
      m_TileIndex: 3
      m_TileSpriteIndex: 4
      m_TileMatrixIndex: 0
      m_TileColorIndex: 0
      m_ObjectToInstantiate: {fileID: 0}
      m_TileFlags: 1
      m_ColliderType: 1
  - first: {x: 5, y: 11, z: 0}
    second:
      m_TileIndex: 4
      m_TileSpriteIndex: 5
      m_TileMatrixIndex: 0
      m_TileColorIndex: 0
      m_ObjectToInstantiate: {fileID: 0}
      m_TileFlags: 1
      m_ColliderType: 1
  - first: {x: 6, y: 11, z: 0}
    second:
      m_TileIndex: 5
      m_TileSpriteIndex: 128
      m_TileMatrixIndex: 0
      m_TileColorIndex: 0
      m_ObjectToInstantiate: {fileID: 0}
      m_TileFlags: 1
      m_ColliderType: 1
  - first: {x: 7, y: 11, z: 0}
    second:
      m_TileIndex: 6
      m_TileSpriteIndex: 6
      m_TileMatrixIndex: 0
      m_TileColorIndex: 0
      m_ObjectToInstantiate: {fileID: 0}
      m_TileFlags: 1
      m_ColliderType: 1
  - first: {x: 9, y: 11, z: 0}
    second:
      m_TileIndex: 7
      m_TileSpriteIndex: 7
      m_TileMatrixIndex: 0
      m_TileColorIndex: 0
      m_ObjectToInstantiate: {fileID: 0}
      m_TileFlags: 1
      m_ColliderType: 1
  - first: {x: 10, y: 11, z: 0}
    second:
      m_TileIndex: 8
      m_TileSpriteIndex: 8
      m_TileMatrixIndex: 0
      m_TileColorIndex: 0
      m_ObjectToInstantiate: {fileID: 0}
      m_TileFlags: 1
      m_ColliderType: 1
  - first: {x: 12, y: 11, z: 0}
    second:
      m_TileIndex: 9
      m_TileSpriteIndex: 9
      m_TileMatrixIndex: 0
      m_TileColorIndex: 0
      m_ObjectToInstantiate: {fileID: 0}
      m_TileFlags: 1
      m_ColliderType: 1
  - first: {x: 13, y: 11, z: 0}
    second:
      m_TileIndex: 10
      m_TileSpriteIndex: 10
      m_TileMatrixIndex: 0
      m_TileColorIndex: 0
      m_ObjectToInstantiate: {fileID: 0}
      m_TileFlags: 1
      m_ColliderType: 1
  - first: {x: 15, y: 11, z: 0}
    second:
      m_TileIndex: 11
      m_TileSpriteIndex: 11
      m_TileMatrixIndex: 0
      m_TileColorIndex: 0
      m_ObjectToInstantiate: {fileID: 0}
      m_TileFlags: 1
      m_ColliderType: 1
  - first: {x: 16, y: 11, z: 0}
    second:
      m_TileIndex: 12
      m_TileSpriteIndex: 12
      m_TileMatrixIndex: 0
      m_TileColorIndex: 0
      m_ObjectToInstantiate: {fileID: 0}
      m_TileFlags: 1
      m_ColliderType: 1
  - first: {x: 18, y: 11, z: 0}
    second:
      m_TileIndex: 13
      m_TileSpriteIndex: 13
      m_TileMatrixIndex: 0
      m_TileColorIndex: 0
      m_ObjectToInstantiate: {fileID: 0}
      m_TileFlags: 1
      m_ColliderType: 1
  - first: {x: 19, y: 11, z: 0}
    second:
      m_TileIndex: 14
      m_TileSpriteIndex: 14
      m_TileMatrixIndex: 0
      m_TileColorIndex: 0
      m_ObjectToInstantiate: {fileID: 0}
      m_TileFlags: 1
      m_ColliderType: 1
  m_AnimatedTiles: {}
  m_TileAssetArray:
  - m_RefCount: 0
    m_Data: {fileID: 0}
  - m_RefCount: 1
    m_Data: {fileID: 11400000, guid: 95ebf79ef8d5e4842a36c256392dea57, type: 2}
  - m_RefCount: 1
    m_Data: {fileID: 11400000, guid: 3503bb57644564a4681c5d3071ea6d16, type: 2}
  - m_RefCount: 1
    m_Data: {fileID: 11400000, guid: 13b64d915a69265449847db3c8e60186, type: 2}
  - m_RefCount: 1
    m_Data: {fileID: 11400000, guid: 9f7fce203290ddd409ed7c4df613a2a1, type: 2}
  - m_RefCount: 1
    m_Data: {fileID: 11400000, guid: 2d2fd3c9f26baf741a23131b5e9bd3e3, type: 2}
  - m_RefCount: 1
    m_Data: {fileID: 11400000, guid: cd83d597e41be8244b492781cfafe697, type: 2}
  - m_RefCount: 1
    m_Data: {fileID: 11400000, guid: 2e3b64ab38c665d4a9af8b632dda0dc0, type: 2}
  - m_RefCount: 1
    m_Data: {fileID: 11400000, guid: fdb529f4ff4700a468189a8da88071b2, type: 2}
  - m_RefCount: 1
    m_Data: {fileID: 11400000, guid: 6c9f0aaeebbf13d488fcd3d66f750cd6, type: 2}
  - m_RefCount: 1
    m_Data: {fileID: 11400000, guid: 698408e60693cef4087f9bf7dd01d3e9, type: 2}
  - m_RefCount: 1
    m_Data: {fileID: 11400000, guid: 62a341839ef2cfa4cafbae6ebeb4815b, type: 2}
  - m_RefCount: 1
    m_Data: {fileID: 11400000, guid: cdbc8416c85fd634dabafafc00b1b8f2, type: 2}
  - m_RefCount: 1
    m_Data: {fileID: 11400000, guid: 3feac83e694d1cb4aa18f2b4483f5f1e, type: 2}
  - m_RefCount: 1
    m_Data: {fileID: 11400000, guid: 796bedba07c7c994ead59dda2a82ca7e, type: 2}
  - m_RefCount: 1
    m_Data: {fileID: 11400000, guid: 7b749a4490b18ba4ba134d1f06b4409e, type: 2}
  - m_RefCount: 1
    m_Data: {fileID: 11400000, guid: 7ced18b5a63e1074696ece4a59c2ef7a, type: 2}
  - m_RefCount: 1
    m_Data: {fileID: 11400000, guid: ddb3a0bae43026c4da6cfb51de9a1788, type: 2}
  - m_RefCount: 1
    m_Data: {fileID: 11400000, guid: 54097609501ded74e903fe0f3e947487, type: 2}
  - m_RefCount: 1
    m_Data: {fileID: 11400000, guid: c4073c12e1b24c84eab5b5997d4c91a3, type: 2}
  - m_RefCount: 1
    m_Data: {fileID: 11400000, guid: f854fb015518e7f4d90317296ebacc79, type: 2}
  - m_RefCount: 1
    m_Data: {fileID: 11400000, guid: 36d4f222346eb9c4d9ca5f69b2925561, type: 2}
  - m_RefCount: 1
    m_Data: {fileID: 11400000, guid: 1ee5dbd4fdadc104baa839d3d4370fd0, type: 2}
  - m_RefCount: 1
    m_Data: {fileID: 11400000, guid: 7d46937185a9714479aed78b31074ce6, type: 2}
  - m_RefCount: 1
    m_Data: {fileID: 11400000, guid: 81f39f37c2dc1e64a91c62e3ee8a336c, type: 2}
  - m_RefCount: 1
    m_Data: {fileID: 11400000, guid: 5fa75f64c6e81a342add6542f7a8fc32, type: 2}
  - m_RefCount: 1
    m_Data: {fileID: 11400000, guid: 8b7e5d88622740946a2d714c4f44eefb, type: 2}
  - m_RefCount: 1
    m_Data: {fileID: 11400000, guid: 7585ab55a8f868546955e2261a704080, type: 2}
  - m_RefCount: 1
    m_Data: {fileID: 11400000, guid: 95c04f5a90f0d954983cf47464e456d4, type: 2}
  - m_RefCount: 1
    m_Data: {fileID: 11400000, guid: c0b23d94b8c1ff94e9db50135f00f413, type: 2}
  - m_RefCount: 1
    m_Data: {fileID: 11400000, guid: 9258cfc4502883e498f193037418e17f, type: 2}
  - m_RefCount: 1
    m_Data: {fileID: 11400000, guid: 3ef792ea94bbce647aa6c45daa49f42f, type: 2}
  - m_RefCount: 1
    m_Data: {fileID: 11400000, guid: 26ab76b5ace7a224b81d12c6870eca88, type: 2}
  - m_RefCount: 1
    m_Data: {fileID: 11400000, guid: 61e69f4b8a17679448aec8807dc2c3fb, type: 2}
  - m_RefCount: 1
    m_Data: {fileID: 11400000, guid: 0cfca15d8d9d5b544833ae5c3e90cdf1, type: 2}
  - m_RefCount: 1
    m_Data: {fileID: 11400000, guid: 20a935f5022fcf948a32980587c50f58, type: 2}
  - m_RefCount: 1
    m_Data: {fileID: 11400000, guid: a88060d3029a419419ba4ec3ee7dd2fc, type: 2}
  - m_RefCount: 1
    m_Data: {fileID: 11400000, guid: 96e28c95b91c2684686324b2a7cbf7cb, type: 2}
  - m_RefCount: 1
    m_Data: {fileID: 11400000, guid: d9616929ca91c794abc7d5620efb0c79, type: 2}
  - m_RefCount: 1
    m_Data: {fileID: 11400000, guid: 2ca8fed7d14f48244a33fc80a747b5a0, type: 2}
  - m_RefCount: 1
    m_Data: {fileID: 11400000, guid: dfb19d13907d7ad4aafc1dce2d8d1bbc, type: 2}
  - m_RefCount: 1
    m_Data: {fileID: 11400000, guid: 9aa8e32f35174d5429cb0571a1e76227, type: 2}
  - m_RefCount: 1
    m_Data: {fileID: 11400000, guid: 01e7828f45383e84d872052eaa3d3956, type: 2}
  - m_RefCount: 1
    m_Data: {fileID: 11400000, guid: db7980388ad58124ca29e6109924c1a1, type: 2}
  - m_RefCount: 1
    m_Data: {fileID: 11400000, guid: 254faf81c26865f48817b184878eed61, type: 2}
  - m_RefCount: 1
    m_Data: {fileID: 11400000, guid: 9c27f627e33747546943822e0e0f3ddd, type: 2}
  - m_RefCount: 1
    m_Data: {fileID: 11400000, guid: e3cf97cff36d17a448256915ff00a2af, type: 2}
  - m_RefCount: 1
    m_Data: {fileID: 11400000, guid: 30ee2e52eaf199e40abd87fac3d7f9b0, type: 2}
  - m_RefCount: 1
    m_Data: {fileID: 11400000, guid: 630ec39fb348bea45a0d9d6ee8924f64, type: 2}
  - m_RefCount: 1
    m_Data: {fileID: 11400000, guid: 0a1ba9d3740cf1c44bfb640f58acf092, type: 2}
  - m_RefCount: 1
    m_Data: {fileID: 11400000, guid: 6560411920ac9b64fb137dacbc046534, type: 2}
  - m_RefCount: 1
    m_Data: {fileID: 11400000, guid: e0834ef7b7cd8d948ade73c377d37b5f, type: 2}
  - m_RefCount: 1
    m_Data: {fileID: 11400000, guid: 31bad6df49d8add4ea56bcf16a0da14b, type: 2}
  - m_RefCount: 1
    m_Data: {fileID: 11400000, guid: 958e26f783959d54cbd904a6e0c12bdf, type: 2}
  - m_RefCount: 1
    m_Data: {fileID: 11400000, guid: 446a109ad7f5b7b49ab4040207981c5b, type: 2}
  - m_RefCount: 1
    m_Data: {fileID: 11400000, guid: c6457af6c69fb0e45a3e693b7aed7d55, type: 2}
  - m_RefCount: 1
    m_Data: {fileID: 11400000, guid: b0ac1dbbd58addc4b8e7e0db9f69f2a7, type: 2}
  - m_RefCount: 1
    m_Data: {fileID: 11400000, guid: cf22f815cd3f9514c91f989ead442fac, type: 2}
  - m_RefCount: 1
    m_Data: {fileID: 11400000, guid: 51eeee3bafe93dd4fbab1a22c7e2cb9d, type: 2}
  - m_RefCount: 1
    m_Data: {fileID: 11400000, guid: 2e4da07b0bd22894d9dc5c58d13a463f, type: 2}
  - m_RefCount: 1
    m_Data: {fileID: 11400000, guid: f7186fa1c0c67b84aa777af44e570961, type: 2}
  - m_RefCount: 1
    m_Data: {fileID: 11400000, guid: 50b7ff44e18ec584989d41be71c5b94e, type: 2}
  - m_RefCount: 1
    m_Data: {fileID: 11400000, guid: 50d24fca0b3c367418a6d5f9dd994c32, type: 2}
  - m_RefCount: 1
    m_Data: {fileID: 11400000, guid: 76bd3a2dd66a3b549b52dd6527aea93c, type: 2}
  - m_RefCount: 1
    m_Data: {fileID: 11400000, guid: 9f94ebc1a9d421a4f84bbd092c88d940, type: 2}
  - m_RefCount: 1
    m_Data: {fileID: 11400000, guid: 01a8979c2aeffc247aa10c112136a02b, type: 2}
  - m_RefCount: 1
    m_Data: {fileID: 11400000, guid: 580db51e8bcac9a44983f65ac2f68dbe, type: 2}
  - m_RefCount: 1
    m_Data: {fileID: 11400000, guid: 0a53abae0d5bf7146889b3fbcbeae73c, type: 2}
  - m_RefCount: 1
    m_Data: {fileID: 11400000, guid: b43db52f99432174a915f585a0ad8348, type: 2}
  - m_RefCount: 1
    m_Data: {fileID: 11400000, guid: 454309b6860374d4ebab70bd71bf6caa, type: 2}
  - m_RefCount: 1
    m_Data: {fileID: 11400000, guid: 8140bdd7f94988546899c978efd54fbf, type: 2}
  - m_RefCount: 1
    m_Data: {fileID: 11400000, guid: af030d4d8f1657646a0e7710c9e4edca, type: 2}
  - m_RefCount: 1
    m_Data: {fileID: 11400000, guid: d1da00d05f243404f928e4971bf088e7, type: 2}
  - m_RefCount: 1
    m_Data: {fileID: 11400000, guid: e710a09a731a35a48a1d89053260a635, type: 2}
  - m_RefCount: 1
    m_Data: {fileID: 11400000, guid: 27f933c60db56f845999c8deb651cd7c, type: 2}
  - m_RefCount: 1
    m_Data: {fileID: 11400000, guid: dceb266ac9cdee54fa7a6afd98375c01, type: 2}
  - m_RefCount: 1
    m_Data: {fileID: 11400000, guid: 420394b50395fb646ab2d56f52422fa7, type: 2}
  - m_RefCount: 1
    m_Data: {fileID: 11400000, guid: e15a95030b99b3c4b9aad4b0de5de26f, type: 2}
  - m_RefCount: 1
    m_Data: {fileID: 11400000, guid: b0d683d0e6580fd4fa48c62603e701b5, type: 2}
  - m_RefCount: 1
    m_Data: {fileID: 11400000, guid: bcfcd5c4f1b459c4c8030d0546ca424d, type: 2}
  - m_RefCount: 1
    m_Data: {fileID: 11400000, guid: 800948373aa2d244b976d0a4bc16088f, type: 2}
  - m_RefCount: 1
    m_Data: {fileID: 11400000, guid: e3d523669e5f77f4c969805fe45a6735, type: 2}
  - m_RefCount: 1
    m_Data: {fileID: 11400000, guid: 0bc3d2861d153b048b66a8096e7d0053, type: 2}
  - m_RefCount: 1
    m_Data: {fileID: 11400000, guid: fb75491494011514a8f23a10ea945774, type: 2}
  - m_RefCount: 1
    m_Data: {fileID: 11400000, guid: 9812da102f31c9b4fa2cf7d062202a33, type: 2}
  - m_RefCount: 1
    m_Data: {fileID: 11400000, guid: 401baaf663102d24f9ba89ba353459b8, type: 2}
  - m_RefCount: 1
    m_Data: {fileID: 11400000, guid: 9cabf8280d957fa44a78fe8c965d819e, type: 2}
  - m_RefCount: 1
    m_Data: {fileID: 11400000, guid: 73c40787b7d78ca43b50b88fc7cc3c08, type: 2}
  - m_RefCount: 1
    m_Data: {fileID: 11400000, guid: 09e0a1d46e88ff048bc81c94a6e54e9c, type: 2}
  - m_RefCount: 1
    m_Data: {fileID: 11400000, guid: 7181f9126d2a0bb4c8913b9da8531ab5, type: 2}
  - m_RefCount: 1
    m_Data: {fileID: 11400000, guid: fe209f7e8aadcfe40b8b3ceec9458acf, type: 2}
  - m_RefCount: 1
    m_Data: {fileID: 11400000, guid: 87814224cbf0d7944a7604046f95c620, type: 2}
  - m_RefCount: 1
    m_Data: {fileID: 11400000, guid: 3e648c17359e2db43b3351aa364866a9, type: 2}
  - m_RefCount: 1
    m_Data: {fileID: 11400000, guid: 481d522fb9dd6514fa7358c63fabdf01, type: 2}
  - m_RefCount: 1
    m_Data: {fileID: 11400000, guid: 1d6e2a6f5812645498d9e006f2afab57, type: 2}
  - m_RefCount: 1
    m_Data: {fileID: 11400000, guid: 877bd5b5402e6bc4d86bdef293bec547, type: 2}
  - m_RefCount: 1
    m_Data: {fileID: 11400000, guid: 25fd0fbd8a59cce44a182a0d2ea993a1, type: 2}
  - m_RefCount: 1
    m_Data: {fileID: 11400000, guid: 14f7d37cdc8a4174a94efe3229b6ed95, type: 2}
  - m_RefCount: 1
    m_Data: {fileID: 11400000, guid: 2dcde528aab360445b217f1f91f21241, type: 2}
  - m_RefCount: 1
    m_Data: {fileID: 11400000, guid: 260155869e38e3a49a3e8976c7aec3d7, type: 2}
  - m_RefCount: 1
    m_Data: {fileID: 11400000, guid: d90d538a4486ee5499740d004dff0cd6, type: 2}
  - m_RefCount: 1
    m_Data: {fileID: 11400000, guid: 09f86b5d45e0e0c4fa07f6423c71710a, type: 2}
  - m_RefCount: 1
    m_Data: {fileID: 11400000, guid: f76c142d61d46324193f26896338b92a, type: 2}
  - m_RefCount: 1
    m_Data: {fileID: 11400000, guid: 88d46a9de3178134b970dc758da7c874, type: 2}
  - m_RefCount: 1
    m_Data: {fileID: 11400000, guid: e6d10b63f66e1a74499a9eca647ca768, type: 2}
  - m_RefCount: 1
    m_Data: {fileID: 11400000, guid: 0ac5d2ece2eb2b94586ce1c41b075dbe, type: 2}
  - m_RefCount: 1
    m_Data: {fileID: 11400000, guid: 9f5b97767cd6f0a44ac4fb7c52650cb2, type: 2}
  - m_RefCount: 1
    m_Data: {fileID: 11400000, guid: 0644f52719185554ea5535503707e872, type: 2}
  - m_RefCount: 1
    m_Data: {fileID: 11400000, guid: 3b96ad6e40f66b2429ecb955b7bad26a, type: 2}
  - m_RefCount: 1
    m_Data: {fileID: 11400000, guid: 1be71586d57f7da4b8ec73f93b0dcf66, type: 2}
  - m_RefCount: 1
    m_Data: {fileID: 11400000, guid: 7c77bc197226dba498ba76a6189e71a3, type: 2}
  - m_RefCount: 1
    m_Data: {fileID: 11400000, guid: 1f3fcd6b29df09a449d8e2734ed464d1, type: 2}
  - m_RefCount: 1
    m_Data: {fileID: 11400000, guid: afb9a94c8074ea14087030c7bfa40cb0, type: 2}
  - m_RefCount: 1
    m_Data: {fileID: 11400000, guid: b97b94971bf74f64b96ed9fe9dfc543f, type: 2}
  - m_RefCount: 1
    m_Data: {fileID: 11400000, guid: 11a6e5f7d11394540883af94d0e24978, type: 2}
  - m_RefCount: 1
    m_Data: {fileID: 11400000, guid: b640751d1a96260408c8c317cef8b5bf, type: 2}
  - m_RefCount: 1
    m_Data: {fileID: 11400000, guid: b3f1ecb0a7cc4704d9682f6cd4416ae2, type: 2}
  - m_RefCount: 1
    m_Data: {fileID: 11400000, guid: df32b2399032c7c448850c97d3be429e, type: 2}
  - m_RefCount: 1
    m_Data: {fileID: 11400000, guid: 929d46a0fd82d084c9af4203a54ee066, type: 2}
  - m_RefCount: 1
    m_Data: {fileID: 11400000, guid: 80b87684b7e5edc49937183d035e6c71, type: 2}
  - m_RefCount: 1
    m_Data: {fileID: 11400000, guid: 907f8cc8af6b78c4a8842574b92e1e67, type: 2}
  - m_RefCount: 1
    m_Data: {fileID: 11400000, guid: c42b0234cd101a84ba9691ab3ced6580, type: 2}
  - m_RefCount: 1
    m_Data: {fileID: 11400000, guid: 05df1a4b2f73f6b47ad9c2d82c24cdb4, type: 2}
  - m_RefCount: 1
    m_Data: {fileID: 11400000, guid: 3049ddc982a9ab747a0b477a8ae48f28, type: 2}
  - m_RefCount: 1
    m_Data: {fileID: 11400000, guid: 21ec7215eed06bf4791047755c729823, type: 2}
  - m_RefCount: 1
    m_Data: {fileID: 11400000, guid: 9ad6d8055c74ee747988da7e22240f82, type: 2}
  - m_RefCount: 1
    m_Data: {fileID: 11400000, guid: 114bef1879f667d47ab1a22c22ea30aa, type: 2}
  - m_RefCount: 1
    m_Data: {fileID: 11400000, guid: 44b98cec5d915c04b817bedaa23717da, type: 2}
  - m_RefCount: 1
    m_Data: {fileID: 11400000, guid: 0f81f96d41eba5748b4db486b016ba12, type: 2}
  m_TileSpriteArray:
  - m_RefCount: 0
    m_Data: {fileID: 0}
  - m_RefCount: 1
    m_Data: {fileID: -7486092956772349302, guid: 3b66e1a27c9634fe9a4746c47eeda7cc,
      type: 3}
  - m_RefCount: 1
    m_Data: {fileID: 6007627129536956325, guid: 3b66e1a27c9634fe9a4746c47eeda7cc,
      type: 3}
  - m_RefCount: 1
    m_Data: {fileID: 5663061954668274717, guid: 3b66e1a27c9634fe9a4746c47eeda7cc,
      type: 3}
  - m_RefCount: 1
    m_Data: {fileID: -3627264120405484348, guid: 3b66e1a27c9634fe9a4746c47eeda7cc,
      type: 3}
  - m_RefCount: 1
    m_Data: {fileID: -4815885190406460031, guid: 3b66e1a27c9634fe9a4746c47eeda7cc,
      type: 3}
  - m_RefCount: 1
    m_Data: {fileID: -396035294860175646, guid: 3b66e1a27c9634fe9a4746c47eeda7cc,
      type: 3}
  - m_RefCount: 1
    m_Data: {fileID: 8233071653059976297, guid: 3b66e1a27c9634fe9a4746c47eeda7cc,
      type: 3}
  - m_RefCount: 1
    m_Data: {fileID: -7775419718026629507, guid: 3b66e1a27c9634fe9a4746c47eeda7cc,
      type: 3}
  - m_RefCount: 1
    m_Data: {fileID: -781294158744790408, guid: 3b66e1a27c9634fe9a4746c47eeda7cc,
      type: 3}
  - m_RefCount: 1
    m_Data: {fileID: 9061651696941551919, guid: 3b66e1a27c9634fe9a4746c47eeda7cc,
      type: 3}
  - m_RefCount: 1
    m_Data: {fileID: -6985117363303071740, guid: 3b66e1a27c9634fe9a4746c47eeda7cc,
      type: 3}
  - m_RefCount: 1
    m_Data: {fileID: 8642771837104280003, guid: 3b66e1a27c9634fe9a4746c47eeda7cc,
      type: 3}
  - m_RefCount: 1
    m_Data: {fileID: -1762573714345474896, guid: 3b66e1a27c9634fe9a4746c47eeda7cc,
      type: 3}
  - m_RefCount: 1
    m_Data: {fileID: 11442893378838041, guid: 3b66e1a27c9634fe9a4746c47eeda7cc, type: 3}
  - m_RefCount: 1
    m_Data: {fileID: -317771678647371661, guid: 3b66e1a27c9634fe9a4746c47eeda7cc,
      type: 3}
  - m_RefCount: 1
    m_Data: {fileID: -2426843357703420916, guid: 3b66e1a27c9634fe9a4746c47eeda7cc,
      type: 3}
  - m_RefCount: 1
    m_Data: {fileID: -3642208251427772964, guid: 3b66e1a27c9634fe9a4746c47eeda7cc,
      type: 3}
  - m_RefCount: 1
    m_Data: {fileID: 3985221016008397036, guid: 3b66e1a27c9634fe9a4746c47eeda7cc,
      type: 3}
  - m_RefCount: 1
    m_Data: {fileID: 5778961287088506303, guid: 3b66e1a27c9634fe9a4746c47eeda7cc,
      type: 3}
  - m_RefCount: 1
    m_Data: {fileID: 8758155216525550727, guid: 3b66e1a27c9634fe9a4746c47eeda7cc,
      type: 3}
  - m_RefCount: 1
    m_Data: {fileID: 6116080786932476827, guid: 3b66e1a27c9634fe9a4746c47eeda7cc,
      type: 3}
  - m_RefCount: 1
    m_Data: {fileID: -1385786070971223102, guid: 3b66e1a27c9634fe9a4746c47eeda7cc,
      type: 3}
  - m_RefCount: 1
    m_Data: {fileID: 5043307788359985916, guid: 3b66e1a27c9634fe9a4746c47eeda7cc,
      type: 3}
  - m_RefCount: 1
    m_Data: {fileID: -6157781805458569218, guid: 3b66e1a27c9634fe9a4746c47eeda7cc,
      type: 3}
  - m_RefCount: 1
    m_Data: {fileID: -538331831730588137, guid: 3b66e1a27c9634fe9a4746c47eeda7cc,
      type: 3}
  - m_RefCount: 1
    m_Data: {fileID: -5587653796134901919, guid: 3b66e1a27c9634fe9a4746c47eeda7cc,
      type: 3}
  - m_RefCount: 1
    m_Data: {fileID: -4272949958406870782, guid: 3b66e1a27c9634fe9a4746c47eeda7cc,
      type: 3}
  - m_RefCount: 1
    m_Data: {fileID: -4827537604736492380, guid: 3b66e1a27c9634fe9a4746c47eeda7cc,
      type: 3}
  - m_RefCount: 1
    m_Data: {fileID: 4021183171127385890, guid: 3b66e1a27c9634fe9a4746c47eeda7cc,
      type: 3}
  - m_RefCount: 1
    m_Data: {fileID: -7967309640338825673, guid: 3b66e1a27c9634fe9a4746c47eeda7cc,
      type: 3}
  - m_RefCount: 1
    m_Data: {fileID: 1237908169197521079, guid: 3b66e1a27c9634fe9a4746c47eeda7cc,
      type: 3}
  - m_RefCount: 1
    m_Data: {fileID: 5018706250341604807, guid: 3b66e1a27c9634fe9a4746c47eeda7cc,
      type: 3}
  - m_RefCount: 1
    m_Data: {fileID: -6468910726198660926, guid: 3b66e1a27c9634fe9a4746c47eeda7cc,
      type: 3}
  - m_RefCount: 1
    m_Data: {fileID: -1518774645772049220, guid: 3b66e1a27c9634fe9a4746c47eeda7cc,
      type: 3}
  - m_RefCount: 1
    m_Data: {fileID: 3048538982666575687, guid: 3b66e1a27c9634fe9a4746c47eeda7cc,
      type: 3}
  - m_RefCount: 1
    m_Data: {fileID: -6923900727490736670, guid: 3b66e1a27c9634fe9a4746c47eeda7cc,
      type: 3}
  - m_RefCount: 1
    m_Data: {fileID: -3697150339598545061, guid: 3b66e1a27c9634fe9a4746c47eeda7cc,
      type: 3}
  - m_RefCount: 1
    m_Data: {fileID: -7131273655155896711, guid: 3b66e1a27c9634fe9a4746c47eeda7cc,
      type: 3}
  - m_RefCount: 1
    m_Data: {fileID: 8621815960616643281, guid: 3b66e1a27c9634fe9a4746c47eeda7cc,
      type: 3}
  - m_RefCount: 1
    m_Data: {fileID: -6205172343615221245, guid: 3b66e1a27c9634fe9a4746c47eeda7cc,
      type: 3}
  - m_RefCount: 1
    m_Data: {fileID: 7654806567737475841, guid: 3b66e1a27c9634fe9a4746c47eeda7cc,
      type: 3}
  - m_RefCount: 1
    m_Data: {fileID: -1702772467812443111, guid: 3b66e1a27c9634fe9a4746c47eeda7cc,
      type: 3}
  - m_RefCount: 1
    m_Data: {fileID: 576860350140093190, guid: 3b66e1a27c9634fe9a4746c47eeda7cc, type: 3}
  - m_RefCount: 1
    m_Data: {fileID: 5547708042039842948, guid: 3b66e1a27c9634fe9a4746c47eeda7cc,
      type: 3}
  - m_RefCount: 1
    m_Data: {fileID: -6017339223957375553, guid: 3b66e1a27c9634fe9a4746c47eeda7cc,
      type: 3}
  - m_RefCount: 1
    m_Data: {fileID: -4116040823106012581, guid: 3b66e1a27c9634fe9a4746c47eeda7cc,
      type: 3}
  - m_RefCount: 1
    m_Data: {fileID: 6732870910531023, guid: 3b66e1a27c9634fe9a4746c47eeda7cc, type: 3}
  - m_RefCount: 1
    m_Data: {fileID: -6831599063569703212, guid: 3b66e1a27c9634fe9a4746c47eeda7cc,
      type: 3}
  - m_RefCount: 1
    m_Data: {fileID: -5016527918528981960, guid: 3b66e1a27c9634fe9a4746c47eeda7cc,
      type: 3}
  - m_RefCount: 1
    m_Data: {fileID: 3885819281616729284, guid: 3b66e1a27c9634fe9a4746c47eeda7cc,
      type: 3}
  - m_RefCount: 1
    m_Data: {fileID: 9192141375248400463, guid: 3b66e1a27c9634fe9a4746c47eeda7cc,
      type: 3}
  - m_RefCount: 1
    m_Data: {fileID: 293392773991598977, guid: 3b66e1a27c9634fe9a4746c47eeda7cc, type: 3}
  - m_RefCount: 1
    m_Data: {fileID: -1978880106863730396, guid: 3b66e1a27c9634fe9a4746c47eeda7cc,
      type: 3}
  - m_RefCount: 1
    m_Data: {fileID: 2815510966112240897, guid: 3b66e1a27c9634fe9a4746c47eeda7cc,
      type: 3}
  - m_RefCount: 1
    m_Data: {fileID: 3461855256792236426, guid: 3b66e1a27c9634fe9a4746c47eeda7cc,
      type: 3}
  - m_RefCount: 1
    m_Data: {fileID: -4909924010071155561, guid: 3b66e1a27c9634fe9a4746c47eeda7cc,
      type: 3}
  - m_RefCount: 1
    m_Data: {fileID: -6748938332277025590, guid: 3b66e1a27c9634fe9a4746c47eeda7cc,
      type: 3}
  - m_RefCount: 1
    m_Data: {fileID: 2177024245305386223, guid: 3b66e1a27c9634fe9a4746c47eeda7cc,
      type: 3}
  - m_RefCount: 1
    m_Data: {fileID: 1510392478064077718, guid: 3b66e1a27c9634fe9a4746c47eeda7cc,
      type: 3}
  - m_RefCount: 1
    m_Data: {fileID: -5726643437316625391, guid: 3b66e1a27c9634fe9a4746c47eeda7cc,
      type: 3}
  - m_RefCount: 1
    m_Data: {fileID: 5224892034047083157, guid: 3b66e1a27c9634fe9a4746c47eeda7cc,
      type: 3}
  - m_RefCount: 1
    m_Data: {fileID: 1053245576194407766, guid: 3b66e1a27c9634fe9a4746c47eeda7cc,
      type: 3}
  - m_RefCount: 1
    m_Data: {fileID: 1077660200836561826, guid: 3b66e1a27c9634fe9a4746c47eeda7cc,
      type: 3}
  - m_RefCount: 1
    m_Data: {fileID: -5265849548139384413, guid: 3b66e1a27c9634fe9a4746c47eeda7cc,
      type: 3}
  - m_RefCount: 1
    m_Data: {fileID: 6418657867545673408, guid: 3b66e1a27c9634fe9a4746c47eeda7cc,
      type: 3}
  - m_RefCount: 1
    m_Data: {fileID: 6264988462522759893, guid: 3b66e1a27c9634fe9a4746c47eeda7cc,
      type: 3}
  - m_RefCount: 1
    m_Data: {fileID: 2204049225861295520, guid: 3b66e1a27c9634fe9a4746c47eeda7cc,
      type: 3}
  - m_RefCount: 1
    m_Data: {fileID: -4605163527387846987, guid: 3b66e1a27c9634fe9a4746c47eeda7cc,
      type: 3}
  - m_RefCount: 1
    m_Data: {fileID: -8673441916583476125, guid: 3b66e1a27c9634fe9a4746c47eeda7cc,
      type: 3}
  - m_RefCount: 1
    m_Data: {fileID: 2160675205206706675, guid: 3b66e1a27c9634fe9a4746c47eeda7cc,
      type: 3}
  - m_RefCount: 1
    m_Data: {fileID: -1040992118310419130, guid: 3b66e1a27c9634fe9a4746c47eeda7cc,
      type: 3}
  - m_RefCount: 1
    m_Data: {fileID: -5859045247806993216, guid: 3b66e1a27c9634fe9a4746c47eeda7cc,
      type: 3}
  - m_RefCount: 1
    m_Data: {fileID: 1946776270529680156, guid: 3b66e1a27c9634fe9a4746c47eeda7cc,
      type: 3}
  - m_RefCount: 1
    m_Data: {fileID: 3679769539610414968, guid: 3b66e1a27c9634fe9a4746c47eeda7cc,
      type: 3}
  - m_RefCount: 1
    m_Data: {fileID: -133517962813326697, guid: 3b66e1a27c9634fe9a4746c47eeda7cc,
      type: 3}
  - m_RefCount: 1
    m_Data: {fileID: 974969132830988049, guid: 3b66e1a27c9634fe9a4746c47eeda7cc, type: 3}
  - m_RefCount: 1
    m_Data: {fileID: 54813008368543375, guid: 3b66e1a27c9634fe9a4746c47eeda7cc, type: 3}
  - m_RefCount: 1
    m_Data: {fileID: -1111467040747940836, guid: 3b66e1a27c9634fe9a4746c47eeda7cc,
      type: 3}
  - m_RefCount: 1
    m_Data: {fileID: 4539572432158512276, guid: 3b66e1a27c9634fe9a4746c47eeda7cc,
      type: 3}
  - m_RefCount: 1
    m_Data: {fileID: -440094530379634619, guid: 3b66e1a27c9634fe9a4746c47eeda7cc,
      type: 3}
  - m_RefCount: 1
    m_Data: {fileID: 8436483236309373761, guid: 3b66e1a27c9634fe9a4746c47eeda7cc,
      type: 3}
  - m_RefCount: 1
    m_Data: {fileID: -9128652258105010429, guid: 3b66e1a27c9634fe9a4746c47eeda7cc,
      type: 3}
  - m_RefCount: 1
    m_Data: {fileID: 5991473849112003203, guid: 3b66e1a27c9634fe9a4746c47eeda7cc,
      type: 3}
  - m_RefCount: 1
    m_Data: {fileID: 4330230722670678443, guid: 3b66e1a27c9634fe9a4746c47eeda7cc,
      type: 3}
  - m_RefCount: 1
    m_Data: {fileID: -1691220034148343436, guid: 3b66e1a27c9634fe9a4746c47eeda7cc,
      type: 3}
  - m_RefCount: 1
    m_Data: {fileID: 5437897656927332739, guid: 3b66e1a27c9634fe9a4746c47eeda7cc,
      type: 3}
  - m_RefCount: 1
    m_Data: {fileID: 1307626347214929657, guid: 3b66e1a27c9634fe9a4746c47eeda7cc,
      type: 3}
  - m_RefCount: 1
    m_Data: {fileID: 6276069379633589520, guid: 3b66e1a27c9634fe9a4746c47eeda7cc,
      type: 3}
  - m_RefCount: 1
    m_Data: {fileID: 3608026245190458011, guid: 3b66e1a27c9634fe9a4746c47eeda7cc,
      type: 3}
  - m_RefCount: 1
    m_Data: {fileID: -9167755149240453841, guid: 3b66e1a27c9634fe9a4746c47eeda7cc,
      type: 3}
  - m_RefCount: 1
    m_Data: {fileID: -3026403903459387518, guid: 3b66e1a27c9634fe9a4746c47eeda7cc,
      type: 3}
  - m_RefCount: 1
    m_Data: {fileID: -912226708761013127, guid: 3b66e1a27c9634fe9a4746c47eeda7cc,
      type: 3}
  - m_RefCount: 1
    m_Data: {fileID: 64046951760991985, guid: 3b66e1a27c9634fe9a4746c47eeda7cc, type: 3}
  - m_RefCount: 1
    m_Data: {fileID: 6731733094262721628, guid: 3b66e1a27c9634fe9a4746c47eeda7cc,
      type: 3}
  - m_RefCount: 1
    m_Data: {fileID: 5679421691457111198, guid: 3b66e1a27c9634fe9a4746c47eeda7cc,
      type: 3}
  - m_RefCount: 1
    m_Data: {fileID: -2209401061123471698, guid: 3b66e1a27c9634fe9a4746c47eeda7cc,
      type: 3}
  - m_RefCount: 1
    m_Data: {fileID: -798795321885504356, guid: 3b66e1a27c9634fe9a4746c47eeda7cc,
      type: 3}
  - m_RefCount: 1
    m_Data: {fileID: 2734534193476647528, guid: 3b66e1a27c9634fe9a4746c47eeda7cc,
      type: 3}
  - m_RefCount: 1
    m_Data: {fileID: 4676232042555661266, guid: 3b66e1a27c9634fe9a4746c47eeda7cc,
      type: 3}
  - m_RefCount: 1
    m_Data: {fileID: 26675975723062386, guid: 3b66e1a27c9634fe9a4746c47eeda7cc, type: 3}
  - m_RefCount: 1
    m_Data: {fileID: 4060546897201354903, guid: 3b66e1a27c9634fe9a4746c47eeda7cc,
      type: 3}
  - m_RefCount: 1
    m_Data: {fileID: -1824318353210508716, guid: 3b66e1a27c9634fe9a4746c47eeda7cc,
      type: 3}
  - m_RefCount: 1
    m_Data: {fileID: 1018328791618719094, guid: 3b66e1a27c9634fe9a4746c47eeda7cc,
      type: 3}
  - m_RefCount: 1
    m_Data: {fileID: 4072258924830223602, guid: 3b66e1a27c9634fe9a4746c47eeda7cc,
      type: 3}
  - m_RefCount: 1
    m_Data: {fileID: -449521129324896115, guid: 3b66e1a27c9634fe9a4746c47eeda7cc,
      type: 3}
  - m_RefCount: 1
    m_Data: {fileID: -4069433135438937170, guid: 3b66e1a27c9634fe9a4746c47eeda7cc,
      type: 3}
  - m_RefCount: 1
    m_Data: {fileID: -3988596780175509632, guid: 3b66e1a27c9634fe9a4746c47eeda7cc,
      type: 3}
  - m_RefCount: 1
    m_Data: {fileID: -2927467422400913361, guid: 3b66e1a27c9634fe9a4746c47eeda7cc,
      type: 3}
  - m_RefCount: 1
    m_Data: {fileID: 7520313796697013927, guid: 3b66e1a27c9634fe9a4746c47eeda7cc,
      type: 3}
  - m_RefCount: 1
    m_Data: {fileID: 1372472711436484874, guid: 3b66e1a27c9634fe9a4746c47eeda7cc,
      type: 3}
  - m_RefCount: 1
    m_Data: {fileID: -5784052603835726715, guid: 3b66e1a27c9634fe9a4746c47eeda7cc,
      type: 3}
  - m_RefCount: 1
    m_Data: {fileID: -1807440466647841244, guid: 3b66e1a27c9634fe9a4746c47eeda7cc,
      type: 3}
  - m_RefCount: 1
    m_Data: {fileID: -3777550615242853001, guid: 3b66e1a27c9634fe9a4746c47eeda7cc,
      type: 3}
  - m_RefCount: 1
    m_Data: {fileID: 6187717847525548743, guid: 3b66e1a27c9634fe9a4746c47eeda7cc,
      type: 3}
  - m_RefCount: 1
    m_Data: {fileID: -4680151985043211058, guid: 3b66e1a27c9634fe9a4746c47eeda7cc,
      type: 3}
  - m_RefCount: 1
    m_Data: {fileID: 6222405554938725553, guid: 3b66e1a27c9634fe9a4746c47eeda7cc,
      type: 3}
  - m_RefCount: 1
    m_Data: {fileID: 7365494074633768783, guid: 3b66e1a27c9634fe9a4746c47eeda7cc,
      type: 3}
  - m_RefCount: 1
    m_Data: {fileID: -2936289823458937912, guid: 3b66e1a27c9634fe9a4746c47eeda7cc,
      type: 3}
  - m_RefCount: 1
    m_Data: {fileID: -9178284988810271814, guid: 3b66e1a27c9634fe9a4746c47eeda7cc,
      type: 3}
  - m_RefCount: 1
    m_Data: {fileID: -6646765574518339977, guid: 3b66e1a27c9634fe9a4746c47eeda7cc,
      type: 3}
  - m_RefCount: 1
    m_Data: {fileID: -362684925555704359, guid: 3b66e1a27c9634fe9a4746c47eeda7cc,
      type: 3}
  - m_RefCount: 1
    m_Data: {fileID: -7521506733355556346, guid: 3b66e1a27c9634fe9a4746c47eeda7cc,
      type: 3}
  - m_RefCount: 1
    m_Data: {fileID: 5906929534726048222, guid: 3b66e1a27c9634fe9a4746c47eeda7cc,
      type: 3}
  - m_RefCount: 1
    m_Data: {fileID: -6448477584000896110, guid: 3b66e1a27c9634fe9a4746c47eeda7cc,
      type: 3}
  - m_RefCount: 1
    m_Data: {fileID: 8428129474414255811, guid: 3b66e1a27c9634fe9a4746c47eeda7cc,
      type: 3}
  - m_RefCount: 1
    m_Data: {fileID: -1012056433526176113, guid: 3b66e1a27c9634fe9a4746c47eeda7cc,
      type: 3}
  - m_RefCount: 1
    m_Data: {fileID: -2637164433561087041, guid: 3b66e1a27c9634fe9a4746c47eeda7cc,
      type: 3}
  - m_RefCount: 1
    m_Data: {fileID: 7477116942032994148, guid: 3b66e1a27c9634fe9a4746c47eeda7cc,
      type: 3}
  m_TileMatrixArray:
  - m_RefCount: 128
    m_Data:
      e00: 1
      e01: 0
      e02: 0
      e03: 0
      e10: 0
      e11: 1
      e12: 0
      e13: 0
      e20: 0
      e21: 0
      e22: 1
      e23: 0
      e30: 0
      e31: 0
      e32: 0
      e33: 1
  m_TileColorArray:
  - m_RefCount: 128
    m_Data: {r: 1, g: 1, b: 1, a: 1}
  - m_RefCount: 0
    m_Data: {r: 0.00004499621, g: 0.00004499621, b: 0.00004499621, a: 0.00004499621}
  m_AnimationFrameRate: 1
  m_Color: {r: 1, g: 1, b: 1, a: 1}
  m_Origin: {x: -3, y: -21, z: 0}
  m_Size: {x: 23, y: 33, z: 1}
  m_TileAnchor: {x: 0.5, y: 0.5, z: 0}
  m_TileOrientation: 0
  m_TileOrientationMatrix:
    e00: 1
    e01: 0
    e02: 0
    e03: 0
    e10: 0
    e11: 1
    e12: 0
    e13: 0
    e20: 0
    e21: 0
    e22: 1
    e23: 0
    e30: 0
    e31: 0
    e32: 0
    e33: 1
--- !u!483693784 &1523843612627319572
TilemapRenderer:
  m_ObjectHideFlags: 0
  m_CorrespondingSourceObject: {fileID: 0}
  m_PrefabInstance: {fileID: 0}
  m_PrefabAsset: {fileID: 0}
  m_GameObject: {fileID: 236960531545964720}
  m_Enabled: 0
  m_CastShadows: 0
  m_ReceiveShadows: 0
  m_DynamicOccludee: 0
  m_MotionVectors: 1
  m_LightProbeUsage: 0
  m_ReflectionProbeUsage: 0
  m_RenderingLayerMask: 1
  m_RendererPriority: 0
  m_Materials:
  - {fileID: 10754, guid: 0000000000000000f000000000000000, type: 0}
  m_StaticBatchInfo:
    firstSubMesh: 0
    subMeshCount: 0
  m_StaticBatchRoot: {fileID: 0}
  m_ProbeAnchor: {fileID: 0}
  m_LightProbeVolumeOverride: {fileID: 0}
  m_ScaleInLightmap: 1
  m_ReceiveGI: 1
  m_PreserveUVs: 0
  m_IgnoreNormalsForChartDetection: 0
  m_ImportantGI: 0
  m_StitchLightmapSeams: 1
  m_SelectedEditorRenderState: 0
  m_MinimumChartSize: 4
  m_AutoUVMaxDistance: 0.5
  m_AutoUVMaxAngle: 89
  m_LightmapParameters: {fileID: 0}
  m_SortingLayerID: 0
  m_SortingLayer: 0
  m_SortingOrder: 0
  m_ChunkSize: {x: 32, y: 32, z: 32}
  m_ChunkCullingBounds: {x: 0, y: 0, z: 0}
  m_MaxChunkCount: 16
  m_MaxFrameAge: 16
  m_SortOrder: 0
  m_Mode: 0
  m_DetectChunkCullingBounds: 0
  m_MaskInteraction: 0
--- !u!1 &6586047319311837065
GameObject:
  m_ObjectHideFlags: 0
  m_CorrespondingSourceObject: {fileID: 0}
  m_PrefabInstance: {fileID: 0}
  m_PrefabAsset: {fileID: 0}
  serializedVersion: 6
  m_Component:
  - component: {fileID: 4897602588809189713}
  - component: {fileID: 8374428811847991554}
  m_Layer: 31
  m_Name: Platforms
  m_TagString: Untagged
  m_Icon: {fileID: 0}
  m_NavMeshLayer: 0
  m_StaticEditorFlags: 0
  m_IsActive: 1
--- !u!4 &4897602588809189713
Transform:
  m_ObjectHideFlags: 0
  m_CorrespondingSourceObject: {fileID: 0}
  m_PrefabInstance: {fileID: 0}
  m_PrefabAsset: {fileID: 0}
  m_GameObject: {fileID: 6586047319311837065}
  m_LocalRotation: {x: 0, y: 0, z: 0, w: 1}
  m_LocalPosition: {x: 0, y: 0, z: 0}
  m_LocalScale: {x: 1, y: 1, z: 1}
  m_Children:
  - {fileID: 6880517691775217566}
  m_Father: {fileID: 0}
  m_RootOrder: 0
  m_LocalEulerAnglesHint: {x: 0, y: 0, z: 0}
--- !u!156049354 &8374428811847991554
Grid:
  m_ObjectHideFlags: 0
  m_CorrespondingSourceObject: {fileID: 0}
  m_PrefabInstance: {fileID: 0}
  m_PrefabAsset: {fileID: 0}
  m_GameObject: {fileID: 6586047319311837065}
  m_Enabled: 1
  m_CellSize: {x: 0.25, y: 0.25, z: 0}
  m_CellGap: {x: 0, y: 0, z: 0}
  m_CellLayout: 0
  m_CellSwizzle: 0
--- !u!114 &-2961821204385616552
MonoBehaviour:
  m_ObjectHideFlags: 0
  m_CorrespondingSourceObject: {fileID: 0}
  m_PrefabInstance: {fileID: 0}
  m_PrefabAsset: {fileID: 0}
  m_GameObject: {fileID: 0}
  m_Enabled: 1
  m_EditorHideFlags: 0
  m_Script: {fileID: 12395, guid: 0000000000000000e000000000000000, type: 0}
  m_Name: Palette Settings
  m_EditorClassIdentifier: 
  cellSizing: 0
